{"total": 113, "per_page": 100, "current_page": 1, "last_page": 2, "next_page_url": "/wp-json/fluent-crm/v2/tags?page=2", "prev_page_url": null, "from": 1, "to": 100, "data": [{"id": 113, "title": "Wellbeing", "slug": "wellbeing", "description": null, "created_at": "2026-03-23 20:03:35", "updated_at": "2026-03-23 20:03:35", "subscribersCount": 1}, {"id": 112, "title": "Cultural - Supported group", "slug": "cultural-supported-group", "description": null, "created_at": "2026-03-23 20:03:35", "updated_at": "2026-03-23 20:03:35", "subscribersCount": 2}, {"id": 111, "title": "Maori Rep Group", "slug": "maori-rep-group", "description": null, "created_at": "2026-03-23 20:03:35", "updated_at": "2026-03-23 20:03:35", "subscribersCount": 2}, {"id": 110, "title": "Cultural Representative group", "slug": "cultural-representative-group", "description": null, "created_at": "2026-03-23 20:03:35", "updated_at": "2026-03-23 20:03:35", "subscribersCount": 4}, {"id": 109, "title": "Political", "slug": "political", "description": null, "created_at": "2026-03-23 20:03:35", "updated_at": "2026-03-23 20:03:35", "subscribersCount": 15}, {"id": 108, "title": "Rep Group", "slug": "rep-group", "description": null, "created_at": "2026-03-23 20:03:35", "updated_at": "2026-03-23 20:03:35", "subscribersCount": 10}, {"id": 107, "title": "Speaking", "slug": "speaking", "description": null, "created_at": "2026-03-23 20:03:35", "updated_at": "2026-03-23 20:03:35", "subscribersCount": 4}, {"id": 106, "title": "Sustainability", "slug": "sustainability", "description": null, "created_at": "2026-03-23 20:03:35", "updated_at": "2026-03-23 20:03:35", "subscribersCount": 2}, {"id": 105, "title": "Sport & Recreation", "slug": "sport-recreation", "description": null, "created_at": "2026-03-23 20:03:35", "updated_at": "2026-03-23 20:03:35", "subscribersCount": 6}, {"id": 104, "title": "Martial Arts", "slug": "martial-arts", "description": null, "created_at": "2026-03-23 20:03:35", "updated_at": "2026-03-23 20:03:35", "subscribersCount": 10}, {"id": 103, "title": "Leadership & Development", "slug": "leadership-development", "description": null, "created_at": "2026-03-23 20:02:26", "updated_at": "2026-03-23 20:02:26", "subscribersCount": 7}, {"id": 102, "title": "Law", "slug": "law", "description": null, "created_at": "2026-03-23 20:02:26", "updated_at": "2026-03-23 20:02:26", "subscribersCount": 16}, {"id": 101, "title": "Faculty", "slug": "faculty", "description": null, "created_at": "2026-03-23 20:02:26", "updated_at": "2026-03-23 20:02:26", "subscribersCount": 21}, {"id": 100, "title": "Pasifika Rep Group", "slug": "pasifika-rep-group", "description": null, "created_at": "2026-03-23 20:02:26", "updated_at": "2026-03-23 20:02:26", "subscribersCount": 1}, {"id": 99, "title": "Pasifika", "slug": "pasifika", "description": null, "created_at": "2026-03-23 20:02:26", "updated_at": "2026-03-23 20:02:26", "subscribersCount": 15}, {"id": 98, "title": "Arts & Music", "slug": "arts-music", "description": null, "created_at": "2026-03-23 20:02:26", "updated_at": "2026-03-23 20:02:26", "subscribersCount": 16}, {"id": 97, "title": "Maori", "slug": "maori", "description": null, "created_at": "2026-03-23 20:02:26", "updated_at": "2026-03-23 20:02:26", "subscribersCount": 1}, {"id": 96, "title": "Cultural", "slug": "cultural", "description": null, "created_at": "2026-03-23 20:02:26", "updated_at": "2026-03-23 20:02:26", "subscribersCount": 51}, {"id": 95, "title": "Social", "slug": "social", "description": null, "created_at": "2026-03-23 20:02:26", "updated_at": "2026-03-23 20:02:26", "subscribersCount": 4}, {"id": 94, "title": "Sports & Recreation - Water Based", "slug": "sports-recreation-water-based", "description": null, "created_at": "2026-03-23 20:02:26", "updated_at": "2026-03-23 20:02:26", "subscribersCount": 8}, {"id": 93, "title": "Visual & Creative Arts", "slug": "visual-creative-arts", "description": null, "created_at": "2026-03-23 20:02:26", "updated_at": "2026-03-23 20:02:26", "subscribersCount": 17}, {"id": 92, "title": "Global Issues", "slug": "global-issues", "description": null, "created_at": "2026-03-23 20:02:26", "updated_at": "2026-03-23 20:02:26", "subscribersCount": 10}, {"id": 91, "title": "Games & Gaming", "slug": "games-gaming", "description": null, "created_at": "2026-03-23 20:02:26", "updated_at": "2026-03-23 20:02:26", "subscribersCount": 7}, {"id": 90, "title": "Business & Commerce", "slug": "business-commerce", "description": null, "created_at": "2026-03-23 20:02:26", "updated_at": "2026-03-23 20:02:26", "subscribersCount": 27}, {"id": 89, "title": "Science & Technology", "slug": "science-technology", "description": null, "created_at": "2026-03-23 20:02:26", "updated_at": "2026-03-23 20:02:26", "subscribersCount": 27}, {"id": 88, "title": "Sports & Recreation", "slug": "sports-recreation", "description": null, "created_at": "2026-03-23 20:02:26", "updated_at": "2026-03-23 20:02:26", "subscribersCount": 41}, {"id": 87, "title": "Faith", "slug": "faith", "description": null, "created_at": "2026-03-23 20:02:26", "updated_at": "2026-03-23 20:02:26", "subscribersCount": 23}, {"id": 86, "title": "Wellbeing; Awaiting re-registration", "slug": "wellbeing-awaiting-re-registration", "description": null, "created_at": "2026-03-23 19:58:39", "updated_at": "2026-03-23 19:58:39", "subscribersCount": 1}, {"id": 85, "title": "Leadership & Development; Pending Approval", "slug": "leadership-development-pending-approval", "description": null, "created_at": "2026-03-23 19:58:39", "updated_at": "2026-03-23 19:58:39", "subscribersCount": 1}, {"id": 84, "title": "Global Issues; Fully registered", "slug": "global-issues-fully-registered", "description": null, "created_at": "2026-03-23 19:58:39", "updated_at": "2026-03-23 19:58:39", "subscribersCount": 1}, {"id": 83, "title": "Sports & Recreation - Water Based; Pending Approval", "slug": "sports-recreation-water-based-pending-approval", "description": null, "created_at": "2026-03-23 19:58:38", "updated_at": "2026-03-23 19:58:38", "subscribersCount": 1}, {"id": 82, "title": "Pasifika Rep Group; Awaiting re-registration", "slug": "pasifika-rep-group-awaiting-re-registration", "description": null, "created_at": "2026-03-23 19:58:38", "updated_at": "2026-03-23 19:58:38", "subscribersCount": 1}, {"id": 81, "title": "Maori; Provisionally registered", "slug": "maori-provisionally-registered", "description": null, "created_at": "2026-03-23 19:58:38", "updated_at": "2026-03-23 19:58:38", "subscribersCount": 1}, {"id": 80, "title": "Social; Awaiting re-registration", "slug": "social-awaiting-re-registration", "description": null, "created_at": "2026-03-23 19:58:37", "updated_at": "2026-03-23 19:58:37", "subscribersCount": 1}, {"id": 79, "title": "Sports & Recreation - Water Based; Fully registered", "slug": "sports-recreation-water-based-fully-registered", "description": null, "created_at": "2026-03-23 19:58:37", "updated_at": "2026-03-23 19:58:37", "subscribersCount": 1}, {"id": 78, "title": "Global Issues; Pending Approval", "slug": "global-issues-pending-approval", "description": null, "created_at": "2026-03-23 19:58:37", "updated_at": "2026-03-23 19:58:37", "subscribersCount": 1}, {"id": 77, "title": "Business & Commerce; Awaiting re-registration", "slug": "business-commerce-awaiting-re-registration", "description": null, "created_at": "2026-03-23 19:58:37", "updated_at": "2026-03-23 19:58:37", "subscribersCount": 2}, {"id": 76, "title": "Local Issues; Awaiting re-registration", "slug": "local-issues-awaiting-re-registration", "description": null, "created_at": "2026-03-23 19:58:37", "updated_at": "2026-03-23 19:58:37", "subscribersCount": 2}, {"id": 75, "title": "Cultural - Supported group; Pending Approval", "slug": "cultural-supported-group-pending-approval", "description": null, "created_at": "2026-03-23 19:58:37", "updated_at": "2026-03-23 19:58:37", "subscribersCount": 2}, {"id": 74, "title": "Cultural Representative group; Awaiting re-registration", "slug": "cultural-representative-group-awaiting-re-registration", "description": null, "created_at": "2026-03-23 19:58:37", "updated_at": "2026-03-23 19:58:37", "subscribersCount": 2}, {"id": 73, "title": "Pasifika; Provisionally registered", "slug": "pasifika-provisionally-registered", "description": null, "created_at": "2026-03-23 19:58:37", "updated_at": "2026-03-23 19:58:37", "subscribersCount": 3}, {"id": 72, "title": "Martial Arts; Fully registered", "slug": "martial-arts-fully-registered", "description": null, "created_at": "2026-03-23 19:58:37", "updated_at": "2026-03-23 19:58:37", "subscribersCount": 4}, {"id": 71, "title": "Leadership & Development; Awaiting re-registration", "slug": "leadership-development-awaiting-re-registration", "description": null, "created_at": "2026-03-23 19:58:37", "updated_at": "2026-03-23 19:58:37", "subscribersCount": 3}, {"id": 70, "title": "Sports & Recreation - Water Based; Awaiting re-registration", "slug": "sports-recreation-water-based-awaiting-re-registration", "description": null, "created_at": "2026-03-23 19:58:37", "updated_at": "2026-03-23 19:58:37", "subscribersCount": 4}, {"id": 69, "title": "Local Issues; Pending Approval", "slug": "local-issues-pending-approval", "description": null, "created_at": "2026-03-23 19:58:37", "updated_at": "2026-03-23 19:58:37", "subscribersCount": 2}, {"id": 68, "title": "Speaking; Fully registered", "slug": "speaking-fully-registered", "description": null, "created_at": "2026-03-23 19:58:37", "updated_at": "2026-03-23 19:58:37", "subscribersCount": 2}, {"id": 67, "title": "Rep Group; Awaiting re-registration", "slug": "rep-group-awaiting-re-registration", "description": null, "created_at": "2026-03-23 19:58:37", "updated_at": "2026-03-23 19:58:37", "subscribersCount": 2}, {"id": 66, "title": "Sport & Recreation; Awaiting re-registration", "slug": "sport-recreation-awaiting-re-registration", "description": null, "created_at": "2026-03-23 19:58:37", "updated_at": "2026-03-23 19:58:37", "subscribersCount": 2}, {"id": 65, "title": "Political; Provisionally registered", "slug": "political-provisionally-registered", "description": null, "created_at": "2026-03-23 19:58:37", "updated_at": "2026-03-23 19:58:37", "subscribersCount": 2}, {"id": 64, "title": "Rep Group; Pending Approval", "slug": "rep-group-pending-approval", "description": null, "created_at": "2026-03-23 19:58:37", "updated_at": "2026-03-23 19:58:37", "subscribersCount": 2}, {"id": 63, "title": "Faith; Fully registered", "slug": "faith-fully-registered", "description": null, "created_at": "2026-03-23 19:58:37", "updated_at": "2026-03-23 19:58:37", "subscribersCount": 2}, {"id": 62, "title": "Faculty; Fully registered", "slug": "faculty-fully-registered", "description": null, "created_at": "2026-03-23 19:58:37", "updated_at": "2026-03-23 19:58:37", "subscribersCount": 3}, {"id": 61, "title": "Maori Rep Group; Awaiting re-registration", "slug": "maori-rep-group-awaiting-re-registration", "description": null, "created_at": "2026-03-23 19:58:37", "updated_at": "2026-03-23 19:58:37", "subscribersCount": 2}, {"id": 60, "title": "Law; Awaiting re-registration", "slug": "law-awaiting-re-registration", "description": null, "created_at": "2026-03-23 19:58:37", "updated_at": "2026-03-23 19:58:37", "subscribersCount": 4}, {"id": 59, "title": "Faculty; Awaiting re-registration", "slug": "faculty-awaiting-re-registration", "description": null, "created_at": "2026-03-23 19:58:37", "updated_at": "2026-03-23 19:58:37", "subscribersCount": 7}, {"id": 58, "title": "Political; Awaiting re-registration", "slug": "political-awaiting-re-registration", "description": null, "created_at": "2026-03-23 19:58:37", "updated_at": "2026-03-23 19:58:37", "subscribersCount": 4}, {"id": 57, "title": "Clubs Partner", "slug": "clubs-partner", "description": null, "created_at": "2026-03-23 19:58:37", "updated_at": "2026-03-23 19:58:37", "subscribersCount": 11}, {"id": 56, "title": "Pasifika; Fully registered", "slug": "pasifika-fully-registered", "description": null, "created_at": "2026-03-23 19:58:37", "updated_at": "2026-03-23 19:58:37", "subscribersCount": 4}, {"id": 55, "title": "Martial Arts; Awaiting re-registration", "slug": "martial-arts-awaiting-re-registration", "description": null, "created_at": "2026-03-23 19:58:37", "updated_at": "2026-03-23 19:58:37", "subscribersCount": 2}, {"id": 54, "title": "Cultural Representative group; Provisionally registered", "slug": "cultural-representative-group-provisionally-registered", "description": null, "created_at": "2026-03-23 19:58:37", "updated_at": "2026-03-23 19:58:37", "subscribersCount": 2}, {"id": 53, "title": "Global Issues; Awaiting re-registration", "slug": "global-issues-awaiting-re-registration", "description": null, "created_at": "2026-03-23 19:58:37", "updated_at": "2026-03-23 19:58:37", "subscribersCount": 8}, {"id": 52, "title": "Arts & Music; Provisionally registered", "slug": "arts-music-provisionally-registered", "description": null, "created_at": "2026-03-23 19:58:37", "updated_at": "2026-03-23 19:58:37", "subscribersCount": 2}, {"id": 51, "title": "Political; Fully registered", "slug": "political-fully-registered", "description": null, "created_at": "2026-03-23 19:58:37", "updated_at": "2026-03-23 19:58:37", "subscribersCount": 4}, {"id": 50, "title": "Business & Commerce; Pending Approval", "slug": "business-commerce-pending-approval", "description": null, "created_at": "2026-03-23 19:58:37", "updated_at": "2026-03-23 19:58:37", "subscribersCount": 6}, {"id": 49, "title": "Science & Technology; Provisionally registered", "slug": "science-technology-provisionally-registered", "description": null, "created_at": "2026-03-23 19:58:37", "updated_at": "2026-03-23 19:58:37", "subscribersCount": 5}, {"id": 48, "title": "Leadership & Development; Fully registered", "slug": "leadership-development-fully-registered", "description": null, "created_at": "2026-03-23 19:58:37", "updated_at": "2026-03-23 19:58:37", "subscribersCount": 2}, {"id": 47, "title": "Political; Pending Approval", "slug": "political-pending-approval", "description": null, "created_at": "2026-03-23 19:58:37", "updated_at": "2026-03-23 19:58:37", "subscribersCount": 5}, {"id": 46, "title": "Games & Gaming; Fully registered", "slug": "games-gaming-fully-registered", "description": null, "created_at": "2026-03-23 19:58:37", "updated_at": "2026-03-23 19:58:37", "subscribersCount": 4}, {"id": 45, "title": "Local Issues", "slug": "local-issues", "description": null, "created_at": "2026-03-23 19:58:37", "updated_at": "2026-03-23 19:58:37", "subscribersCount": 6}, {"id": 44, "title": "Sports & Recreation; Awaiting re-registration", "slug": "sports-recreation-awaiting-re-registration", "description": null, "created_at": "2026-03-23 19:58:37", "updated_at": "2026-03-23 19:58:37", "subscribersCount": 21}, {"id": 43, "title": "Arts & Music; Awaiting re-registration", "slug": "arts-music-awaiting-re-registration", "description": null, "created_at": "2026-03-23 19:58:37", "updated_at": "2026-03-23 19:58:37", "subscribersCount": 3}, {"id": 42, "title": "Visual & Creative Arts; Awaiting re-registration", "slug": "visual-creative-arts-awaiting-re-registration", "description": null, "created_at": "2026-03-23 19:58:37", "updated_at": "2026-03-23 19:58:37", "subscribersCount": 5}, {"id": 41, "title": "Cultural; Fully registered", "slug": "cultural-fully-registered", "description": null, "created_at": "2026-03-23 19:58:37", "updated_at": "2026-03-23 19:58:37", "subscribersCount": 7}, {"id": 40, "title": "Visual & Creative Arts; Provisionally registered", "slug": "visual-creative-arts-provisionally-registered", "description": null, "created_at": "2026-03-23 19:58:37", "updated_at": "2026-03-23 19:58:37", "subscribersCount": 3}, {"id": 39, "title": "Social; Pending Approval", "slug": "social-pending-approval", "description": null, "created_at": "2026-03-23 19:58:37", "updated_at": "2026-03-23 19:58:37", "subscribersCount": 3}, {"id": 38, "title": "Visual & Creative Arts; Fully registered", "slug": "visual-creative-arts-fully-registered", "description": null, "created_at": "2026-03-23 19:58:37", "updated_at": "2026-03-23 19:58:37", "subscribersCount": 5}, {"id": 37, "title": "Rep Group; Provisionally registered", "slug": "rep-group-provisionally-registered", "description": null, "created_at": "2026-03-23 19:58:37", "updated_at": "2026-03-23 19:58:37", "subscribersCount": 6}, {"id": 36, "title": "Speaking; Awaiting re-registration", "slug": "speaking-awaiting-re-registration", "description": null, "created_at": "2026-03-23 19:58:36", "updated_at": "2026-03-23 19:58:36", "subscribersCount": 2}, {"id": 35, "title": "Sports & Recreation; Pending Approval", "slug": "sports-recreation-pending-approval", "description": null, "created_at": "2026-03-23 19:58:36", "updated_at": "2026-03-23 19:58:36", "subscribersCount": 2}, {"id": 34, "title": "Science & Technology; Fully registered", "slug": "science-technology-fully-registered", "description": null, "created_at": "2026-03-23 19:58:36", "updated_at": "2026-03-23 19:58:36", "subscribersCount": 5}, {"id": 33, "title": "Pasifika; Awaiting re-registration", "slug": "pasifika-awaiting-re-registration", "description": null, "created_at": "2026-03-23 19:58:36", "updated_at": "2026-03-23 19:58:36", "subscribersCount": 8}, {"id": 32, "title": "Business & Commerce; Provisionally registered", "slug": "business-commerce-provisionally-registered", "description": null, "created_at": "2026-03-23 19:58:36", "updated_at": "2026-03-23 19:58:36", "subscribersCount": 7}, {"id": 31, "title": "Law; Fully registered", "slug": "law-fully-registered", "description": null, "created_at": "2026-03-23 19:58:36", "updated_at": "2026-03-23 19:58:36", "subscribersCount": 7}, {"id": 30, "title": "Sustainability; Awaiting re-registration", "slug": "sustainability-awaiting-re-registration", "description": null, "created_at": "2026-03-23 19:58:36", "updated_at": "2026-03-23 19:58:36", "subscribersCount": 2}, {"id": 29, "title": "Faith; Awaiting re-registration", "slug": "faith-awaiting-re-registration", "description": null, "created_at": "2026-03-23 19:58:36", "updated_at": "2026-03-23 19:58:36", "subscribersCount": 3}, {"id": 28, "title": "Faith; Provisionally registered", "slug": "faith-provisionally-registered", "description": null, "created_at": "2026-03-23 19:58:36", "updated_at": "2026-03-23 19:58:36", "subscribersCount": 7}, {"id": 27, "title": "Science & Technology; Awaiting re-registration", "slug": "science-technology-awaiting-re-registration", "description": null, "created_at": "2026-03-23 19:58:36", "updated_at": "2026-03-23 19:58:36", "subscribersCount": 8}, {"id": 26, "title": "Games & Gaming; Awaiting re-registration", "slug": "games-gaming-awaiting-re-registration", "description": null, "created_at": "2026-03-23 19:58:36", "updated_at": "2026-03-23 19:58:36", "subscribersCount": 3}, {"id": 25, "title": "Sports & Recreation; Provisionally registered", "slug": "sports-recreation-provisionally-registered", "description": null, "created_at": "2026-03-23 19:58:36", "updated_at": "2026-03-23 19:58:36", "subscribersCount": 7}, {"id": 24, "title": "Sports & Recreation - Water Based; Provisionally registered", "slug": "sports-recreation-water-based-provisionally-registered", "description": null, "created_at": "2026-03-23 19:58:36", "updated_at": "2026-03-23 19:58:36", "subscribersCount": 2}, {"id": 23, "title": "Cultural; Awaiting re-registration", "slug": "cultural-awaiting-re-registration", "description": null, "created_at": "2026-03-23 19:58:36", "updated_at": "2026-03-23 19:58:36", "subscribersCount": 23}, {"id": 22, "title": "Sport & Recreation; Pending Approval", "slug": "sport-recreation-pending-approval", "description": null, "created_at": "2026-03-23 19:58:36", "updated_at": "2026-03-23 19:58:36", "subscribersCount": 4}, {"id": 21, "title": "Arts & Music; Pending Approval", "slug": "arts-music-pending-approval", "description": null, "created_at": "2026-03-23 19:58:36", "updated_at": "2026-03-23 19:58:36", "subscribersCount": 8}, {"id": 20, "title": "Cultural; Pending Approval", "slug": "cultural-pending-approval", "description": null, "created_at": "2026-03-23 19:58:36", "updated_at": "2026-03-23 19:58:36", "subscribersCount": 7}, {"id": 19, "title": "Faith; Pending Approval", "slug": "faith-pending-approval", "description": null, "created_at": "2026-03-23 19:58:36", "updated_at": "2026-03-23 19:58:36", "subscribersCount": 9}, {"id": 18, "title": "Faculty; Provisionally registered", "slug": "faculty-provisionally-registered", "description": null, "created_at": "2026-03-23 19:58:36", "updated_at": "2026-03-23 19:58:36", "subscribersCount": 5}, {"id": 17, "title": "Sports & Recreation; Fully registered", "slug": "sports-recreation-fully-registered", "description": null, "created_at": "2026-03-23 19:58:36", "updated_at": "2026-03-23 19:58:36", "subscribersCount": 9}, {"id": 16, "title": "Law; Provisionally registered", "slug": "law-provisionally-registered", "description": null, "created_at": "2026-03-23 19:58:36", "updated_at": "2026-03-23 19:58:36", "subscribersCount": 5}, {"id": 15, "title": "Science & Technology; Pending Approval", "slug": "science-technology-pending-approval", "description": null, "created_at": "2026-03-23 19:58:36", "updated_at": "2026-03-23 19:58:36", "subscribersCount": 9}, {"id": 14, "title": "Faculty; Pending Approval", "slug": "faculty-pending-approval", "description": null, "created_at": "2026-03-23 19:58:36", "updated_at": "2026-03-23 19:58:36", "subscribersCount": 4}]}